%YAML 1.1
%TAG !u! tag:unity3d.com,2011:
--- !u!114 &11400000
MonoBehaviour:
  m_ObjectHideFlags: 0
  m_PrefabParentObject: {fileID: 0}
  m_PrefabInternal: {fileID: 0}
  m_GameObject: {fileID: 0}
  m_Enabled: 1
  m_EditorHideFlags: 0
  m_Script: {fileID: 11500000, guid: 446a75eb39a43ee4ba0c92ac39c1c408, type: 3}
  m_Name: EnterRoomsNote
  m_EditorClassIdentifier: 
  hint: I was making some dinner, but then had to use the restroom. When I finished
    my business I watched some TV until I remembered I was making dinner.
