%YAML 1.1
%TAG !u! tag:unity3d.com,2011:
--- !u!114 &11400000
MonoBehaviour:
  m_ObjectHideFlags: 0
  m_PrefabParentObject: {fileID: 0}
  m_PrefabInternal: {fileID: 0}
  m_GameObject: {fileID: 0}
  m_Enabled: 1
  m_EditorHideFlags: 0
  m_Script: {fileID: 11500000, guid: 446a75eb39a43ee4ba0c92ac39c1c408, type: 3}
  m_Name: QueenTipEasy
  m_EditorClassIdentifier: 
  hint: One of the women whom saw themselves as a queen, after butting heads with
    another too often had elected to murder the other. This murder occurred simply
    due to the town having too many queens amongst their populace, the clear only
    solution was the path elected on this day.
